<?xml version="1.0" encoding="UTF-8" standalone="no"?>
<!-- Created with Inkscape (http://www.inkscape.org/) -->

<svg
   xmlns:dc="http://purl.org/dc/elements/1.1/"
   xmlns:cc="http://creativecommons.org/ns#"
   xmlns:rdf="http://www.w3.org/1999/02/22-rdf-syntax-ns#"
   xmlns:svg="http://www.w3.org/2000/svg"
   xmlns="http://www.w3.org/2000/svg"
   xmlns:sodipodi="http://sodipodi.sourceforge.net/DTD/sodipodi-0.dtd"
   xmlns:inkscape="http://www.inkscape.org/namespaces/inkscape"
   width="512"
   height="512"
   id="svg2985"
   version="1.1"
   inkscape:version="0.48.4 r9939"
   sodipodi:docname="icon.svg"
   inkscape:export-filename="C:\Source\bitbucket\elj-nodejs\masters\icon.png"
   inkscape:export-xdpi="72"
   inkscape:export-ydpi="72">
  <defs
     id="defs2987" />
  <sodipodi:namedview
     id="base"
     pagecolor="#ffffff"
     bordercolor="#666666"
     borderopacity="1.0"
     inkscape:pageopacity="0.0"
     inkscape:pageshadow="2"
     inkscape:zoom="1"
     inkscape:cx="202"
     inkscape:cy="242.90909"
     inkscape:current-layer="layer1"
     showgrid="true"
     inkscape:document-units="px"
     inkscape:grid-bbox="true"
     inkscape:window-width="1600"
     inkscape:window-height="837"
     inkscape:window-x="-8"
     inkscape:window-y="-8"
     inkscape:window-maximized="1" />
  <metadata
     id="metadata2990">
    <rdf:RDF>
      <cc:Work
         rdf:about="">
        <dc:format>image/svg+xml</dc:format>
        <dc:type
           rdf:resource="http://purl.org/dc/dcmitype/StillImage" />
        <dc:title></dc:title>
      </cc:Work>
    </rdf:RDF>
  </metadata>
  <g
     id="layer1"
     inkscape:label="Layer 1"
     inkscape:groupmode="layer"
     transform="translate(0,448)">
    <path
       sodipodi:type="arc"
       style="fill:#000000;fill-opacity:1;stroke:none"
       id="path2993"
       sodipodi:cx="93"
       sodipodi:cy="124"
       sodipodi:rx="74"
       sodipodi:ry="71"
       d="m 167,124 a 74,71 0 1 1 -148,0 74,71 0 1 1 148,0 z"
       transform="matrix(0.87837838,0,0,0.91549296,35.310811,-454.52113)" />
    <path
       sodipodi:type="arc"
       style="fill:#000000;fill-opacity:1;stroke:none"
       id="path2993-1"
       sodipodi:cx="93"
       sodipodi:cy="124"
       sodipodi:rx="74"
       sodipodi:ry="71"
       d="m 167,124 a 74,71 0 1 1 -148,0 74,71 0 1 1 148,0 z"
       transform="matrix(1.2162162,0,0,1.2676056,246.89189,-447.1831)" />
    <path
       sodipodi:type="arc"
       style="fill:#000000;fill-opacity:1;stroke:none"
       id="path2993-1-7"
       sodipodi:cx="93"
       sodipodi:cy="124"
       sodipodi:rx="74"
       sodipodi:ry="71"
       d="m 167,124 a 74,71 0 1 1 -148,0 74,71 0 1 1 148,0 z"
       transform="matrix(1.6891892,0,0,1.7605634,9.905402,-333.30986)" />
    <path
       style="fill:none;stroke:#000000;stroke-width:25;stroke-linecap:butt;stroke-linejoin:miter;stroke-opacity:1;stroke-miterlimit:4;stroke-dasharray:none"
       d="m 115,103 247,54 0,0"
       id="path3035"
       inkscape:connector-curvature="0"
       transform="translate(0,-448)" />
    <path
       style="fill:none;stroke:#000000;stroke-width:25;stroke-linecap:butt;stroke-linejoin:miter;stroke-opacity:1;stroke-miterlimit:4;stroke-dasharray:none"
       d="m 163,333 199,-176 0,0"
       id="path3037"
       inkscape:connector-curvature="0"
       transform="translate(0,-448)" />
  </g>
</svg>
